[gd_scene load_steps=2 format=2]

[ext_resource path="res://General/cheese_heart_temp.png" type="Texture" id=1]

[node name="Heart1" type="TextureRect"]
margin_right = 40.0
margin_bottom = 40.0
texture = ExtResource( 1 )
