[gd_scene load_steps=2 format=2]

[ext_resource path="res://Sounds/Trevor's Mouse Adventure No Bit Crusher.wav" type="AudioStream" id=1]

[node name="AudioStreamPlayer" type="AudioStreamPlayer"]
stream = ExtResource( 1 )
autoplay = true
